%YAML 1.1
%TAG !u! tag:unity3d.com,2011:
--- !u!114 &11400000
MonoBehaviour:
  m_ObjectHideFlags: 0
  m_CorrespondingSourceObject: {fileID: 0}
  m_PrefabInstance: {fileID: 0}
  m_PrefabAsset: {fileID: 0}
  m_GameObject: {fileID: 0}
  m_Enabled: 1
  m_EditorHideFlags: 0
  m_Script: {fileID: 11500000, guid: 935899b62f48ae5498594680ed17d133, type: 3}
  m_Name: Dialogue Database (Auto-Backup)
  m_EditorClassIdentifier: 
  version: 
  author: 
  description: 
  globalUserScript: 
  emphasisSettings:
  - color: {r: 1, g: 1, b: 1, a: 1}
    bold: 0
    italic: 0
    underline: 0
  - color: {r: 1, g: 0, b: 0, a: 1}
    bold: 0
    italic: 0
    underline: 0
  - color: {r: 0, g: 1, b: 0, a: 1}
    bold: 0
    italic: 0
    underline: 0
  - color: {r: 0, g: 0, b: 1, a: 1}
    bold: 0
    italic: 0
    underline: 0
  actors:
  - id: 1
    fields:
    - title: Name
      value: Player
      type: 0
      typeString: 
    - title: Pictures
      value: '[]'
      type: 3
      typeString: CustomFieldType_Files
    - title: Description
      value: 
      type: 0
      typeString: 
    - title: IsPlayer
      value: True
      type: 2
      typeString: CustomFieldType_Boolean
    portrait: {fileID: 0}
    spritePortrait: {fileID: 0}
    alternatePortraits: []
    spritePortraits: []
  items: []
  locations: []
  variables:
  - id: 1
    fields:
    - title: Name
      value: Alert
      type: 0
      typeString: 
    - title: Initial Value
      value: 
      type: 0
      typeString: 
    - title: Description
      value: 
      type: 0
      typeString: 
  conversations: []
  syncInfo:
    syncActors: 0
    syncItems: 0
    syncLocations: 0
    syncVariables: 0
    syncActorsDatabase: {fileID: 0}
    syncItemsDatabase: {fileID: 0}
    syncLocationsDatabase: {fileID: 0}
    syncVariablesDatabase: {fileID: 0}
  templateJson: '{"treatItemsAsQuests":true,"actorFields":[{"title":"Name","value":"","type":0,"typeString":""},{"title":"Pictures","value":"[]","type":3,"typeString":"CustomFieldType_Files"},{"title":"Description","value":"","type":0,"typeString":""},{"title":"IsPlayer","value":"False","type":2,"typeString":"CustomFieldType_Boolean"}],"itemFields":[{"title":"Name","value":"","type":0,"typeString":""},{"title":"Pictures","value":"[]","type":3,"typeString":"CustomFieldType_Files"},{"title":"Description","value":"","type":0,"typeString":""},{"title":"Is
    Item","value":"True","type":2,"typeString":"CustomFieldType_Boolean"}],"questFields":[{"title":"Name","value":"","type":0,"typeString":""},{"title":"Pictures","value":"[]","type":3,"typeString":"CustomFieldType_Files"},{"title":"Description","value":"","type":0,"typeString":""},{"title":"Success
    Description","value":"","type":0,"typeString":""},{"title":"Failure Description","value":"","type":0,"typeString":""},{"title":"State","value":"unassigned","type":0,"typeString":""},{"title":"Is
    Item","value":"False","type":2,"typeString":"CustomFieldType_Boolean"}],"locationFields":[{"title":"Name","value":"","type":0,"typeString":""},{"title":"Pictures","value":"[]","type":3,"typeString":"CustomFieldType_Files"},{"title":"Description","value":"","type":0,"typeString":""}],"variableFields":[{"title":"Name","value":"","type":0,"typeString":""},{"title":"Initial
    Value","value":"","type":0,"typeString":""},{"title":"Description","value":"","type":0,"typeString":""}],"conversationFields":[{"title":"Title","value":"","type":0,"typeString":""},{"title":"Pictures","value":"[]","type":3,"typeString":"CustomFieldType_Files"},{"title":"Description","value":"","type":0,"typeString":""},{"title":"Actor","value":"0","type":5,"typeString":"CustomFieldType_Actor"},{"title":"Conversant","value":"0","type":5,"typeString":"CustomFieldType_Actor"}],"dialogueEntryFields":[{"title":"Title","value":"","type":0,"typeString":""},{"title":"Pictures","value":"[]","type":3,"typeString":"CustomFieldType_Files"},{"title":"Description","value":"","type":0,"typeString":""},{"title":"Actor","value":"","type":5,"typeString":"CustomFieldType_Actor"},{"title":"Conversant","value":"","type":5,"typeString":"CustomFieldType_Actor"},{"title":"Menu
    Text","value":"","type":0,"typeString":""},{"title":"Dialogue Text","value":"","type":0,"typeString":""},{"title":"Parenthetical","value":"","type":0,"typeString":""},{"title":"Audio
    Files","value":"[]","type":3,"typeString":"CustomFieldType_Files"},{"title":"Video
    File","value":"","type":0,"typeString":""},{"title":"Sequence","value":"","type":0,"typeString":""}],"actorPrimaryFieldTitles":[],"itemPrimaryFieldTitles":[],"questPrimaryFieldTitles":[],"locationPrimaryFieldTitles":[],"variablePrimaryFieldTitles":[],"conversationPrimaryFieldTitles":[],"dialogueEntryPrimaryFieldTitles":[],"npcLineColor":{"r":1.0,"g":0.0,"b":0.0,"a":1.0},"pcLineColor":{"r":0.0,"g":0.0,"b":1.0,"a":1.0},"repeatLineColor":{"r":0.5,"g":0.5,"b":0.5,"a":1.0}}'
